WARNING: File "pprint_elim_cdef/annotations.out.cif": Semantic warning at line 2, column 1: Unknown annotation name "a": no annotation provider is registered for it in the current environment.
WARNING: File "pprint_elim_cdef/annotations.out.cif": Semantic warning at line 4, column 1: Unknown annotation name "a:b": no annotation provider is registered for it in the current environment.
WARNING: File "pprint_elim_cdef/annotations.out.cif": Semantic warning at line 6, column 1: Unknown annotation name "a:b:c": no annotation provider is registered for it in the current environment.
WARNING: File "pprint_elim_cdef/annotations.out.cif": Semantic warning at line 9, column 1: Unknown annotation name "b": no annotation provider is registered for it in the current environment.
WARNING: File "pprint_elim_cdef/annotations.out.cif": Semantic warning at line 10, column 1: Unknown annotation name "c": no annotation provider is registered for it in the current environment.
WARNING: File "pprint_elim_cdef/annotations.out.cif": Semantic warning at line 11, column 1: Unknown annotation name "d": no annotation provider is registered for it in the current environment.
WARNING: File "pprint_elim_cdef/annotations.out.cif": Semantic warning at line 12, column 1: Unknown annotation name "e": no annotation provider is registered for it in the current environment.
WARNING: File "pprint_elim_cdef/annotations.out.cif": Semantic warning at line 13, column 1: Unknown annotation name "f": no annotation provider is registered for it in the current environment.
WARNING: File "pprint_elim_cdef/annotations.out.cif": Semantic warning at line 14, column 1: Unknown annotation name "g": no annotation provider is registered for it in the current environment.
WARNING: File "pprint_elim_cdef/annotations.out.cif": Semantic warning at line 15, column 1: Unknown annotation name "h": no annotation provider is registered for it in the current environment.
WARNING: File "pprint_elim_cdef/annotations.out.cif": Semantic warning at line 16, column 1: Unknown annotation name "i": no annotation provider is registered for it in the current environment.
WARNING: File "pprint_elim_cdef/annotations.out.cif": Semantic warning at line 17, column 1: Unknown annotation name "j": no annotation provider is registered for it in the current environment.
WARNING: File "pprint_elim_cdef/annotations.out.cif": Semantic warning at line 18, column 1: Unknown annotation name "k": no annotation provider is registered for it in the current environment.
WARNING: File "pprint_elim_cdef/annotations.out.cif": Semantic warning at line 20, column 1: Unknown annotation name "abc:def": no annotation provider is registered for it in the current environment.
