<?xml version="1.0" encoding="utf-8"  standalone="no"?>
<!DOCTYPE svg PUBLIC "-//W3C//DTD SVG 1.1//EN" 
 "http://www.w3.org/Graphics/SVG/1.1/DTD/svg11.dtd">
<!--
  Copyright (c) 2010, 2023 Contributors to the Eclipse Foundation

  See the NOTICE file(s) distributed with this work for additional
  information regarding copyright ownership.

  This program and the accompanying materials are made available under the terms
  of the MIT License which is available at https://opensource.org/licenses/MIT

  SPDX-License-Identifier: MIT
-->
<svg width="600" height="480" viewBox="0 0 600 480"
 xmlns="http://www.w3.org/2000/svg"
 xmlns:xlink="http://www.w3.org/1999/xlink"
>

<title>gnuplot</title>
<desc>Produced by GNUPLOT 4.4 patchlevel 4 </desc>

<defs>

	<circle id='gpDot' r='0.5' stroke-width='0.5'/>
	<path id='gpPt0' stroke-width='0.222' stroke='currentColor' d='M-1,0 h2 M0,-1 v2'/>
	<path id='gpPt1' stroke-width='0.222' stroke='currentColor' d='M-1,-1 L1,1 M1,-1 L-1,1'/>
	<path id='gpPt2' stroke-width='0.222' stroke='currentColor' d='M-1,0 L1,0 M0,-1 L0,1 M-1,-1 L1,1 M-1,1 L1,-1'/>
	<rect id='gpPt3' stroke-width='0.222' stroke='currentColor' x='-1' y='-1' width='2' height='2'/>
	<rect id='gpPt4' stroke-width='0.222' stroke='currentColor' fill='currentColor' x='-1' y='-1' width='2' height='2'/>
	<circle id='gpPt5' stroke-width='0.222' stroke='currentColor' cx='0' cy='0' r='1'/>
	<use xlink:href='#gpPt5' id='gpPt6' fill='currentColor' stroke='none'/>
	<path id='gpPt7' stroke-width='0.222' stroke='currentColor' d='M0,-1.33 L-1.33,0.67 L1.33,0.67 z'/>
	<use xlink:href='#gpPt7' id='gpPt8' fill='currentColor' stroke='none'/>
	<use xlink:href='#gpPt7' id='gpPt9' stroke='currentColor' transform='rotate(180)'/>
	<use xlink:href='#gpPt9' id='gpPt10' fill='currentColor' stroke='none'/>
	<use xlink:href='#gpPt3' id='gpPt11' stroke='currentColor' transform='rotate(45)'/>
	<use xlink:href='#gpPt11' id='gpPt12' fill='currentColor' stroke='none'/>
</defs>
<g style="fill:none; color:white; stroke:currentColor; stroke-width:1.00; stroke-linecap:butt; stroke-linejoin:miter">
</g>
<g style="fill:none; color:black; stroke:currentColor; stroke-width:1.00; stroke-linecap:butt; stroke-linejoin:miter">
	<path  d='M71.9,422.4 L80.9,422.4 M575.0,422.4 L566.0,422.4 '></path>
	<g transform="translate(63.6,426.9)" style="stroke:none; fill:black; font-family:Arial; font-size:12.00pt; text-anchor:end">
		<text> 0</text>
	</g>
	<path  d='M71.9,377.3 L80.9,377.3 M575.0,377.3 L566.0,377.3 '></path>
	<g transform="translate(63.6,381.8)" style="stroke:none; fill:black; font-family:Arial; font-size:12.00pt; text-anchor:end">
		<text> 0.1</text>
	</g>
	<path  d='M71.9,332.2 L80.9,332.2 M575.0,332.2 L566.0,332.2 '></path>
	<g transform="translate(63.6,336.7)" style="stroke:none; fill:black; font-family:Arial; font-size:12.00pt; text-anchor:end">
		<text> 0.2</text>
	</g>
	<path  d='M71.9,287.2 L80.9,287.2 M575.0,287.2 L566.0,287.2 '></path>
	<g transform="translate(63.6,291.7)" style="stroke:none; fill:black; font-family:Arial; font-size:12.00pt; text-anchor:end">
		<text> 0.3</text>
	</g>
	<path  d='M71.9,242.1 L80.9,242.1 M575.0,242.1 L566.0,242.1 '></path>
	<g transform="translate(63.6,246.6)" style="stroke:none; fill:black; font-family:Arial; font-size:12.00pt; text-anchor:end">
		<text> 0.4</text>
	</g>
	<path  d='M71.9,197.0 L80.9,197.0 M575.0,197.0 L566.0,197.0 '></path>
	<g transform="translate(63.6,201.5)" style="stroke:none; fill:black; font-family:Arial; font-size:12.00pt; text-anchor:end">
		<text> 0.5</text>
	</g>
	<path  d='M71.9,151.9 L80.9,151.9 M575.0,151.9 L566.0,151.9 '></path>
	<g transform="translate(63.6,156.4)" style="stroke:none; fill:black; font-family:Arial; font-size:12.00pt; text-anchor:end">
		<text> 0.6</text>
	</g>
	<path  d='M71.9,106.9 L80.9,106.9 M575.0,106.9 L566.0,106.9 '></path>
	<g transform="translate(63.6,111.4)" style="stroke:none; fill:black; font-family:Arial; font-size:12.00pt; text-anchor:end">
		<text> 0.7</text>
	</g>
	<path  d='M71.9,61.8 L80.9,61.8 M575.0,61.8 L566.0,61.8 '></path>
	<g transform="translate(63.6,66.3)" style="stroke:none; fill:black; font-family:Arial; font-size:12.00pt; text-anchor:end">
		<text> 0.8</text>
	</g>
	<path  d='M71.9,16.7 L80.9,16.7 M575.0,16.7 L566.0,16.7 '></path>
	<g transform="translate(63.6,21.2)" style="stroke:none; fill:black; font-family:Arial; font-size:12.00pt; text-anchor:end">
		<text> 0.9</text>
	</g>
	<path  d='M71.9,422.4 L71.9,413.4 M71.9,16.7 L71.9,25.7 '></path>
	<g transform="translate(71.9,444.9)" style="stroke:none; fill:black; font-family:Arial; font-size:12.00pt; text-anchor:middle">
		<text> 0</text>
	</g>
	<path  d='M172.5,422.4 L172.5,413.4 M172.5,16.7 L172.5,25.7 '></path>
	<g transform="translate(172.5,444.9)" style="stroke:none; fill:black; font-family:Arial; font-size:12.00pt; text-anchor:middle">
		<text> 1</text>
	</g>
	<path  d='M273.1,422.4 L273.1,413.4 M273.1,16.7 L273.1,25.7 '></path>
	<g transform="translate(273.1,444.9)" style="stroke:none; fill:black; font-family:Arial; font-size:12.00pt; text-anchor:middle">
		<text> 2</text>
	</g>
	<path  d='M373.8,422.4 L373.8,413.4 M373.8,16.7 L373.8,25.7 '></path>
	<g transform="translate(373.8,444.9)" style="stroke:none; fill:black; font-family:Arial; font-size:12.00pt; text-anchor:middle">
		<text> 3</text>
	</g>
	<path  d='M474.4,422.4 L474.4,413.4 M474.4,16.7 L474.4,25.7 '></path>
	<g transform="translate(474.4,444.9)" style="stroke:none; fill:black; font-family:Arial; font-size:12.00pt; text-anchor:middle">
		<text> 4</text>
	</g>
	<path  d='M575.0,422.4 L575.0,413.4 M575.0,16.7 L575.0,25.7 '></path>
	<g transform="translate(575.0,444.9)" style="stroke:none; fill:black; font-family:Arial; font-size:12.00pt; text-anchor:middle">
		<text> 5</text>
	</g>
	<path  d='M71.9,16.7 L71.9,422.4 L575.0,422.4 L575.0,16.7 L71.9,16.7 Z '></path>
	<g transform="translate(17.6,219.6) rotate(270)" style="stroke:none; fill:black; font-family:Arial; font-size:12.00pt; text-anchor:middle">
		<text>triangle(real a, b, c)</text>
	</g>
	<g transform="translate(323.4,471.9)" style="stroke:none; fill:black; font-family:Arial; font-size:12.00pt; text-anchor:middle">
		<text>x</text>
	</g>
	<g transform="translate(323.5,179.0)" style="stroke:none; fill:black; font-family:Arial; font-size:12.00pt; text-anchor:start">
		<text>triangle(1.0, 2.0, 4.0)</text>
	</g>
</g>
	<g id="Plot_1"><title>Plot_1</title>
<g style="fill:none; color:red; stroke:currentColor; stroke-width:1.00; stroke-linecap:butt; stroke-linejoin:miter">
	<path  d='M172.5,422.4 L173.5,419.4 L174.5,416.4 L175.5,413.4 L176.5,410.4 L177.6,407.4 L178.6,404.4 L179.6,401.4 
		L180.6,398.4 L181.6,395.4 L182.6,392.3 L183.6,389.3 L184.6,386.3 L185.6,383.3 L186.6,380.3 L187.6,377.3 
		L188.6,374.3 L189.6,371.3 L190.6,368.3 L191.6,365.3 L192.6,362.3 L193.7,359.3 L194.7,356.3 L195.7,353.3 
		L196.7,350.3 L197.7,347.3 L198.7,344.3 L199.7,341.3 L200.7,338.3 L201.7,335.2 L202.7,332.2 L203.7,329.2 
		L204.7,326.2 L205.7,323.2 L206.7,320.2 L207.7,317.2 L208.7,314.2 L209.7,311.2 L210.8,308.2 L211.8,305.2 
		L212.8,302.2 L213.8,299.2 L214.8,296.2 L215.8,293.2 L216.8,290.2 L217.8,287.2 L218.8,284.2 L219.8,281.2 
		L220.8,278.2 L221.8,275.1 L222.8,272.1 L223.8,269.1 L224.8,266.1 L225.8,263.1 L226.9,260.1 L227.9,257.1 
		L228.9,254.1 L229.9,251.1 L230.9,248.1 L231.9,245.1 L232.9,242.1 L233.9,239.1 L234.9,236.1 L235.9,233.1 
		L236.9,230.1 L237.9,227.1 L238.9,224.1 L239.9,221.1 L240.9,218.0 L241.9,215.0 L243.0,212.0 L244.0,209.0 
		L245.0,206.0 L246.0,203.0 L247.0,200.0 L248.0,197.0 L249.0,194.0 L250.0,191.0 L251.0,188.0 L252.0,185.0 
		L253.0,182.0 L254.0,179.0 L255.0,176.0 L256.0,173.0 L257.0,170.0 L258.0,167.0 L259.1,164.0 L260.1,160.9 
		L261.1,157.9 L262.1,154.9 L263.1,151.9 L264.1,148.9 L265.1,145.9 L266.1,142.9 L267.1,139.9 L268.1,136.9 
		L269.1,133.9 L270.1,130.9 L271.1,127.9 L272.1,124.9 L273.1,121.9 L274.1,123.4 L275.2,124.9 L276.2,126.4 
		L277.2,127.9 L278.2,129.4 L279.2,130.9 L280.2,132.4 L281.2,133.9 L282.2,135.4 L283.2,136.9 L284.2,138.4 
		L285.2,139.9 L286.2,141.4 L287.2,142.9 L288.2,144.4 L289.2,145.9 L290.2,147.4 L291.3,148.9 L292.3,150.4 
		L293.3,151.9 L294.3,153.4 L295.3,154.9 L296.3,156.4 L297.3,157.9 L298.3,159.4 L299.3,160.9 L300.3,162.5 
		L301.3,164.0 L302.3,165.5 L303.3,167.0 L304.3,168.5 L305.3,170.0 L306.3,171.5 L307.4,173.0 L308.4,174.5 
		L309.4,176.0 L310.4,177.5 L311.4,179.0 L312.4,180.5 L313.4,182.0 L314.4,183.5 L315.4,185.0 L316.4,186.5 
		L317.4,188.0 L318.4,189.5 L319.4,191.0 L320.4,192.5 L321.4,194.0 L322.4,195.5 L323.5,197.0 L324.5,198.5 
		L325.5,200.0 L326.5,201.5 L327.5,203.0 L328.5,204.5 L329.5,206.0 L330.5,207.5 L331.5,209.0 L332.5,210.5 
		L333.5,212.0 L334.5,213.5 L335.5,215.0 L336.5,216.5 L337.5,218.0 L338.5,219.6 L339.5,221.1 L340.6,222.6 
		L341.6,224.1 L342.6,225.6 L343.6,227.1 L344.6,228.6 L345.6,230.1 L346.6,231.6 L347.6,233.1 L348.6,234.6 
		L349.6,236.1 L350.6,237.6 L351.6,239.1 L352.6,240.6 L353.6,242.1 L354.6,243.6 L355.6,245.1 L356.7,246.6 
		L357.7,248.1 L358.7,249.6 L359.7,251.1 L360.7,252.6 L361.7,254.1 L362.7,255.6 L363.7,257.1 L364.7,258.6 
		L365.7,260.1 L366.7,261.6 L367.7,263.1 L368.7,264.6 L369.7,266.1 L370.7,267.6 L371.7,269.1 L372.8,270.6 
		L373.8,272.1 L374.8,273.6 L375.8,275.1 L376.8,276.6 L377.8,278.2 L378.8,279.7 L379.8,281.2 L380.8,282.7 
		L381.8,284.2 L382.8,285.7 L383.8,287.2 L384.8,288.7 L385.8,290.2 L386.8,291.7 L387.8,293.2 L388.9,294.7 
		L389.9,296.2 L390.9,297.7 L391.9,299.2 L392.9,300.7 L393.9,302.2 L394.9,303.7 L395.9,305.2 L396.9,306.7 
		L397.9,308.2 L398.9,309.7 L399.9,311.2 L400.9,312.7 L401.9,314.2 L402.9,315.7 L403.9,317.2 L405.0,318.7 
		L406.0,320.2 L407.0,321.7 L408.0,323.2 L409.0,324.7 L410.0,326.2 L411.0,327.7 L412.0,329.2 L413.0,330.7 
		L414.0,332.2 L415.0,333.7 L416.0,335.2 L417.0,336.8 L418.0,338.3 L419.0,339.8 L420.0,341.3 L421.1,342.8 
		L422.1,344.3 L423.1,345.8 L424.1,347.3 L425.1,348.8 L426.1,350.3 L427.1,351.8 L428.1,353.3 L429.1,354.8 
		L430.1,356.3 L431.1,357.8 L432.1,359.3 L433.1,360.8 L434.1,362.3 L435.1,363.8 L436.1,365.3 L437.2,366.8 
		L438.2,368.3 L439.2,369.8 L440.2,371.3 L441.2,372.8 L442.2,374.3 L443.2,375.8 L444.2,377.3 L445.2,378.8 
		L446.2,380.3 L447.2,381.8 L448.2,383.3 L449.2,384.8 L450.2,386.3 L451.2,387.8 L452.2,389.3 L453.2,390.8 
		L454.3,392.3 L455.3,393.9 L456.3,395.4 L457.3,396.9 L458.3,398.4 L459.3,399.9 L460.3,401.4 L461.3,402.9 
		L462.3,404.4 L463.3,405.9 L464.3,407.4 L465.3,408.9 L466.3,410.4 L467.3,411.9 L468.3,413.4 L469.3,414.9 
		L470.4,416.4 L471.4,417.9 L472.4,419.4 L473.4,420.9 L474.4,422.4 L475.4,422.4 '></path>
</g>
	</g>
<g style="fill:none; color:black; stroke:currentColor; stroke-width:1.00; stroke-linecap:butt; stroke-linejoin:miter">
	<path  d='M71.9,16.7 L71.9,422.4 L575.0,422.4 L575.0,16.7 L71.9,16.7 Z '></path>
</g>
</svg>

