ERROR: File "tchecker/comp_inst_arg_comp_types.cif": Semantic error at line 30, column 14: Definition/instantiation parameter mismatch for the 1st parameter of "g.X": the component parameter is of type "g.pdef", while the argument is of type "g.p".
ERROR: File "tchecker/comp_inst_arg_comp_types.cif": Semantic error at line 32, column 14: Definition/instantiation parameter mismatch for the 1st parameter of "g.X": the component parameter is of type "g.pdef", while the argument is of type "bool".
ERROR: Failed to load CIF file "tchecker/comp_inst_arg_comp_types.cif": the file has errors.
