Input/output report of the various.cif SFunction.

During code generation, CIF variables are made available in the Simulink vectors.
This report lists the variables in each vector, along with their index number.

Modes
-----
g_sync 1

Continuous states
-----------------
time     1
g.sync.c 2

Inputs
------
x        1
y        2
input_li 3

Outputs
-------
g_sync   1
g.sync.c 2
a.li     3
a.x      4
g.rcv.v  5
g.rcv.v2 6
g.snd.a  7
z        8
