Plant groups:
"","PG1","PG2","PG3","PG4","PG5","PG6","PG7","PG8","PG9","PG10"
"S1_LampEntering","1","0","0","0","0","0","0","0","0","0"
"S1_LampLeaving","0","1","0","0","0","0","0","0","0","0"
"S1_Door_Acc","0","0","1","0","0","0","0","0","0","0"
"S1_Door_Sensor","0","0","1","0","0","0","0","0","0","0"
"S1_Sewer_Acc","0","0","0","1","0","0","0","0","0","0"
"S1_Sewer_Sensor","0","0","0","1","0","0","0","0","0","0"
"S1_EqualWater","0","0","0","0","1","0","0","0","0","0"
"S2_LampEntering","0","0","0","0","0","1","0","0","0","0"
"S2_LampLeaving","0","0","0","0","0","0","1","0","0","0"
"S2_Door_Acc","0","0","0","0","0","0","0","1","0","0"
"S2_Door_Sensor","0","0","0","0","0","0","0","1","0","0"
"S2_Sewer_Acc","0","0","0","0","0","0","0","0","1","0"
"S2_Sewer_Sensor","0","0","0","0","0","0","0","0","1","0"
"S2_EqualWater","0","0","0","0","0","0","0","0","0","1"

Requirement groups:
"","RG1","RG2","RG3","RG4","RG5","RG6","RG7","RG8","RG9","RG10","RG11","RG12","RG13","RG14","RG15","RG16","RG17","RG18","RG19","RG20","RG21","RG22","RG23","RG24","RG25","RG26","RG27","RG28","RG29","RG30"
"R1","1","0","0","0","0","0","0","0","0","0","0","0","0","0","0","0","0","0","0","0","0","0","0","0","0","0","0","0","0","0"
"R2","0","1","0","0","0","0","0","0","0","0","0","0","0","0","0","0","0","0","0","0","0","0","0","0","0","0","0","0","0","0"
"R3","0","0","1","0","0","0","0","0","0","0","0","0","0","0","0","0","0","0","0","0","0","0","0","0","0","0","0","0","0","0"
"R4","0","0","0","1","0","0","0","0","0","0","0","0","0","0","0","0","0","0","0","0","0","0","0","0","0","0","0","0","0","0"
"R5","0","0","0","0","1","0","0","0","0","0","0","0","0","0","0","0","0","0","0","0","0","0","0","0","0","0","0","0","0","0"
"R6","0","0","0","0","0","1","0","0","0","0","0","0","0","0","0","0","0","0","0","0","0","0","0","0","0","0","0","0","0","0"
"R7","0","0","0","0","0","0","1","0","0","0","0","0","0","0","0","0","0","0","0","0","0","0","0","0","0","0","0","0","0","0"
"R8","0","0","0","0","0","0","0","1","0","0","0","0","0","0","0","0","0","0","0","0","0","0","0","0","0","0","0","0","0","0"
"R9_1","0","0","0","0","0","0","0","0","1","0","0","0","0","0","0","0","0","0","0","0","0","0","0","0","0","0","0","0","0","0"
"R9_2","0","0","0","0","0","0","0","0","0","1","0","0","0","0","0","0","0","0","0","0","0","0","0","0","0","0","0","0","0","0"
"R10_1","0","0","0","0","0","0","0","0","0","0","1","0","0","0","0","0","0","0","0","0","0","0","0","0","0","0","0","0","0","0"
"R10_2","0","0","0","0","0","0","0","0","0","0","0","1","0","0","0","0","0","0","0","0","0","0","0","0","0","0","0","0","0","0"
"R11","0","0","0","0","0","0","0","0","0","0","0","0","1","0","0","0","0","0","0","0","0","0","0","0","0","0","0","0","0","0"
"R12","0","0","0","0","0","0","0","0","0","0","0","0","0","1","0","0","0","0","0","0","0","0","0","0","0","0","0","0","0","0"
"R13","0","0","0","0","0","0","0","0","0","0","0","0","0","0","1","0","0","0","0","0","0","0","0","0","0","0","0","0","0","0"
"R14","0","0","0","0","0","0","0","0","0","0","0","0","0","0","0","1","0","0","0","0","0","0","0","0","0","0","0","0","0","0"
"R15","0","0","0","0","0","0","0","0","0","0","0","0","0","0","0","0","1","0","0","0","0","0","0","0","0","0","0","0","0","0"
"R16","0","0","0","0","0","0","0","0","0","0","0","0","0","0","0","0","0","1","0","0","0","0","0","0","0","0","0","0","0","0"
"R17","0","0","0","0","0","0","0","0","0","0","0","0","0","0","0","0","0","0","1","0","0","0","0","0","0","0","0","0","0","0"
"R18","0","0","0","0","0","0","0","0","0","0","0","0","0","0","0","0","0","0","0","1","0","0","0","0","0","0","0","0","0","0"
"R19","0","0","0","0","0","0","0","0","0","0","0","0","0","0","0","0","0","0","0","0","1","0","0","0","0","0","0","0","0","0"
"R20","0","0","0","0","0","0","0","0","0","0","0","0","0","0","0","0","0","0","0","0","0","1","0","0","0","0","0","0","0","0"
"R21","0","0","0","0","0","0","0","0","0","0","0","0","0","0","0","0","0","0","0","0","0","0","1","0","0","0","0","0","0","0"
"R22_","0","0","0","0","0","0","0","0","0","0","0","0","0","0","0","0","0","0","0","0","0","0","0","1","0","0","0","0","0","0"
"R22_2","0","0","0","0","0","0","0","0","0","0","0","0","0","0","0","0","0","0","0","0","0","0","0","0","1","0","0","0","0","0"
"R23_1","0","0","0","0","0","0","0","0","0","0","0","0","0","0","0","0","0","0","0","0","0","0","0","0","0","1","0","0","0","0"
"R23_2","0","0","0","0","0","0","0","0","0","0","0","0","0","0","0","0","0","0","0","0","0","0","0","0","0","0","1","0","0","0"
"R24","0","0","0","0","0","0","0","0","0","0","0","0","0","0","0","0","0","0","0","0","0","0","0","0","0","0","0","1","0","0"
"R25","0","0","0","0","0","0","0","0","0","0","0","0","0","0","0","0","0","0","0","0","0","0","0","0","0","0","0","0","1","0"
"R26","0","0","0","0","0","0","0","0","0","0","0","0","0","0","0","0","0","0","0","0","0","0","0","0","0","0","0","0","0","1"

Requirement / Plant relations:
"","PG1","PG2","PG3","PG4","PG5","PG6","PG7","PG8","PG9","PG10"
"RG1","0","0","0","1","0","0","0","0","1","0"
"RG2","0","0","1","0","0","0","0","0","1","0"
"RG3","0","0","1","0","1","0","0","0","0","0"
"RG4","0","0","0","1","0","0","0","1","0","0"
"RG5","0","0","1","0","0","0","0","1","0","0"
"RG6","1","1","0","0","0","0","0","0","0","0"
"RG7","1","0","1","0","0","0","0","0","0","0"
"RG8","1","0","1","0","0","0","0","0","0","0"
"RG9","1","0","1","0","0","0","0","0","0","0"
"RG10","1","0","1","0","0","0","0","0","0","0"
"RG11","0","1","1","0","0","0","0","0","0","0"
"RG12","0","1","1","0","0","0","0","0","0","0"
"RG13","1","1","0","0","0","0","0","0","0","0"
"RG14","0","1","1","0","0","0","0","0","0","0"
"RG15","0","1","1","0","0","0","0","0","0","0"
"RG16","0","0","0","1","0","0","0","0","1","0"
"RG17","0","0","0","1","0","0","0","1","0","0"
"RG18","0","0","0","0","0","0","0","1","0","1"
"RG19","0","0","1","0","0","0","0","0","1","0"
"RG20","0","0","1","0","0","0","0","1","0","0"
"RG21","0","0","0","0","0","1","1","0","0","0"
"RG22","0","0","0","0","0","1","0","1","0","0"
"RG23","0","0","0","0","0","1","0","1","0","0"
"RG24","0","0","0","0","0","1","0","1","0","0"
"RG25","0","0","0","0","0","1","0","1","0","0"
"RG26","0","0","0","0","0","0","1","1","0","0"
"RG27","0","0","0","0","0","0","1","1","0","0"
"RG28","0","0","0","0","0","1","1","0","0","0"
"RG29","0","0","0","0","0","0","1","1","0","0"
"RG30","0","0","0","0","0","0","1","1","0","0"

Unclustered reqsPlants:
  6 2 4 0 0 0 0 0 0 0
  2 6 4 0 0 0 0 0 0 0
  4 4 13 0 1 0 0 2 2 0
  0 0 0 4 0 0 0 2 2 0
  0 0 1 0 1 0 0 0 0 0
  0 0 0 0 0 6 2 4 0 0
  0 0 0 0 0 2 6 4 0 0
  0 0 2 2 0 4 4 13 0 1
  0 0 2 2 0 0 0 0 4 0
  0 0 0 0 0 0 0 1 0 1

--- Start of clustering --
    Flow-based Markov clustering for 10 nodes.
    No bus found.
    
    subjAdjacencies:
    BlockRealMatrix{{0.0,2.0,4.0,0.0,0.0,0.0,0.0,0.0,0.0,0.0},{2.0,0.0,4.0,0.0,0.0,0.0,0.0,0.0,0.0,0.0},{4.0,4.0,0.0,0.0,1.0,0.0,0.0,2.0,2.0,0.0},{0.0,0.0,0.0,0.0,0.0,0.0,0.0,2.0,2.0,0.0},{0.0,0.0,1.0,0.0,0.0,0.0,0.0,0.0,0.0,0.0},{0.0,0.0,0.0,0.0,0.0,0.0,2.0,4.0,0.0,0.0},{0.0,0.0,0.0,0.0,0.0,2.0,0.0,4.0,0.0,0.0},{0.0,0.0,2.0,2.0,0.0,4.0,4.0,0.0,0.0,1.0},{0.0,0.0,2.0,2.0,0.0,0.0,0.0,0.0,0.0,0.0},{0.0,0.0,0.0,0.0,0.0,0.0,0.0,1.0,0.0,0.0}}
    
    probData:
    BlockRealMatrix{{0.3362030951,0.3362030951,0.1680082395,0.0,0.0,0.0,0.0,0.0007989321,0.0027546991,0.0},{0.3362030951,0.3362030951,0.1680082395,0.0,0.0,0.0,0.0,0.0007989321,0.0027546991,0.0},{0.3117116683,0.3117116683,0.2464120846,0.0071880649,0.5,0.0014822872,0.0014822872,0.0380824301,0.1313073257,0.0},{0.0,0.0,0.0067630934,0.4259774928,0.0,0.0048087262,0.0048087262,0.123544197,0.4259774928,0.0},{0.0095911283,0.0095911283,0.2464120846,0.0,0.5,0.0,0.0,0.0011717671,0.0040402254,0.0},{0.0,0.0,0.0007989321,0.0027546991,0.0,0.3362030951,0.3362030951,0.1680082395,0.0,0.0},{0.0,0.0,0.0007989321,0.0027546991,0.0,0.3362030951,0.3362030951,0.1680082395,0.0,0.0},{0.0014822872,0.0014822872,0.0380824301,0.1313073257,0.0,0.3117116683,0.3117116683,0.2464120846,0.0071880649,0.5},{0.0048087262,0.0048087262,0.123544197,0.4259774928,0.0,0.0,0.0,0.0067630934,0.4259774928,0.0},{0.0,0.0,0.0011717671,0.0040402254,0.0,0.0095911283,0.0095911283,0.2464120846,0.0,0.5}}
    
    Input to Markov:
    BlockRealMatrix{{0.3362030951,0.3362030951,0.1680082395,0.0,0.0,0.0,0.0,0.0007989321,0.0027546991,0.0},{0.3362030951,0.3362030951,0.1680082395,0.0,0.0,0.0,0.0,0.0007989321,0.0027546991,0.0},{0.3117116683,0.3117116683,0.2464120846,0.0071880649,0.5,0.0014822872,0.0014822872,0.0380824301,0.1313073257,0.0},{0.0,0.0,0.0067630934,0.4259774928,0.0,0.0048087262,0.0048087262,0.123544197,0.4259774928,0.0},{0.0095911283,0.0095911283,0.2464120846,0.0,0.5,0.0,0.0,0.0011717671,0.0040402254,0.0},{0.0,0.0,0.0007989321,0.0027546991,0.0,0.3362030951,0.3362030951,0.1680082395,0.0,0.0},{0.0,0.0,0.0007989321,0.0027546991,0.0,0.3362030951,0.3362030951,0.1680082395,0.0,0.0},{0.0014822872,0.0014822872,0.0380824301,0.1313073257,0.0,0.3117116683,0.3117116683,0.2464120846,0.0071880649,0.5},{0.0048087262,0.0048087262,0.123544197,0.4259774928,0.0,0.0,0.0,0.0067630934,0.4259774928,0.0},{0.0,0.0,0.0011717671,0.0040402254,0.0,0.0095911283,0.0095911283,0.2464120846,0.0,0.5}}
    Output from Markov:
    BlockRealMatrix{{0.0,0.0,0.0,0.0,0.0,0.0,0.0,0.0,0.0,0.0},{0.0,0.0,0.0,0.0,0.0,0.0,0.0,0.0,0.0,0.0},{1.0,1.0,1.0,0.0,1.0,0.0,0.0,0.0,0.0,0.0},{0.0,0.0,0.0,0.5,0.0,0.0,0.0,0.0,0.5,0.0},{0.0,0.0,0.0,0.0,0.0,0.0,0.0,0.0,0.0,0.0},{0.0,0.0,0.0,0.0,0.0,0.0,0.0,0.0,0.0,0.0},{0.0,0.0,0.0,0.0,0.0,0.0,0.0,0.0,0.0,0.0},{0.0,0.0,0.0,0.0,0.0,1.0,1.0,1.0,0.0,1.0},{0.0,0.0,0.0,0.5,0.0,0.0,0.0,0.0,0.5,0.0},{0.0,0.0,0.0,0.0,0.0,0.0,0.0,0.0,0.0,0.0}}
    
    Clustering-group found:
      - Grouptype CLUSTER
        Local nodes: <none>
          - Grouptype CLUSTER
            Local nodes: {0, 1, 2, 4}
          - Grouptype CLUSTER
            Local nodes: {3, 8}
          - Grouptype CLUSTER
            Local nodes: {5, 6, 7, 9}
    
    Node mapping new <- original:
      0 <- 3
      1 <- 8
      2 <- 0
      3 <- 1
      4 <- 2
      5 <- 4
      6 <- 5
      7 <- 6
      8 <- 7
      9 <- 9
    
    Shuffled nodes of groups near each other:
      - Grouptype CLUSTER
        Local nodes: <none>
          - Grouptype CLUSTER
            Local nodes: {3, 8}
          - Grouptype CLUSTER
            Local nodes: {0, 1, 2, 4}
          - Grouptype CLUSTER
            Local nodes: {5, 6, 7, 9}
--- End of clustering --

Clustered DSM for reqsPlantsDmm (for information only, this data is not actually used):
  4 2 0 0 0 0 0 0 2 0
  2 4 0 0 2 0 0 0 0 0
  0 0 6 2 4 0 0 0 0 0
  0 0 2 6 4 0 0 0 0 0
  0 2 4 4 13 1 0 0 2 0
  0 0 0 0 1 1 0 0 0 0
  0 0 0 0 0 0 6 2 4 0
  0 0 0 0 0 0 2 6 4 0
  2 0 0 0 2 0 4 4 13 1
  0 0 0 0 0 0 0 0 1 1

Make a multi-level tree node for a cluster group with multiple nodes:
        - Grouptype CLUSTER
          Local nodes: <none>
            - Grouptype CLUSTER
              Local nodes: {3, 8}
            - Grouptype CLUSTER
              Local nodes: {0, 1, 2, 4}
            - Grouptype CLUSTER
              Local nodes: {5, 6, 7, 9}
    
    Starting Algorithm 2 by searching and modifying the matrices based on group information.
        Dumping P:
               :  0  1  2  3  4  5  6  7  8  9
              0:  .  2  4  .  .  .  .  .  .  .
              1:  2  .  4  .  .  .  .  .  .  .
              2:  4  4  .  .  1  .  .  2  2  .
              3:  .  .  .  .  .  .  .  2  2  .
              4:  .  .  1  .  .  .  .  .  .  .
              5:  .  .  .  .  .  .  2  4  .  .
              6:  .  .  .  .  .  2  .  4  .  .
              7:  .  .  2  2  .  4  4  .  .  1
              8:  .  .  2  2  .  .  .  .  .  .
              9:  .  .  .  .  .  .  .  1  .  .
        
        Dumping RP:
              0: {3, 8}
              1: {2, 8}
              2: {2, 4}
              3: {3, 7}
              4: {2, 7}
              5: {0, 1}
              6: {0, 2}
              7: {0, 2}
              8: {0, 2}
              9: {0, 2}
             10: {1, 2}
             11: {1, 2}
             12: {0, 1}
             13: {1, 2}
             14: {1, 2}
             15: {3, 8}
             16: {3, 7}
             17: {7, 9}
             18: {2, 8}
             19: {2, 7}
             20: {5, 6}
             21: {5, 7}
             22: {5, 7}
             23: {5, 7}
             24: {5, 7}
             25: {6, 7}
             26: {6, 7}
             27: {5, 6}
             28: {6, 7}
             29: {6, 7}
        
        
        Found P cell (8, 2), with {1, 18} requirements:
            (8, 2): add -2
        Found P cell (3, 7), with {3, 16} requirements:
            (3, 7): add -2
        Found P cell (2, 8), but no requirements.
        Found P cell (2, 7), with {4, 19} requirements:
            (2, 7): add -2
        Found P cell (7, 3), but no requirements.
        Found P cell (7, 2), but no requirements.
        Updated Algorithm 2 data for cluster group members {0, 1, 2, 3, 4, 5, 6, 7, 8, 9}: {2, 3, 7, 8} plant groups, {1, 3, 4, 16, 18, 19} req groups.
        Updated matrices:
            Dumping P:
                   :  0  1  2  3  4  5  6  7  8  9
                  0:  .  2  4  .  .  .  .  .  .  .
                  1:  2  .  4  .  .  .  .  .  .  .
                  2:  4  4  .  .  1  .  .  .  2  .
                  3:  .  .  .  .  .  .  .  .  2  .
                  4:  .  .  1  .  .  .  .  .  .  .
                  5:  .  .  .  .  .  .  2  4  .  .
                  6:  .  .  .  .  .  2  .  4  .  .
                  7:  .  .  2  2  .  4  4  .  .  1
                  8:  .  .  .  2  .  .  .  .  .  .
                  9:  .  .  .  .  .  .  .  1  .  .
            
            Dumping RP:
                  0: {3, 8}
                  1: {}
                  2: {2, 4}
                  3: {}
                  4: {}
                  5: {0, 1}
                  6: {0, 2}
                  7: {0, 2}
                  8: {0, 2}
                  9: {0, 2}
                 10: {1, 2}
                 11: {1, 2}
                 12: {0, 1}
                 13: {1, 2}
                 14: {1, 2}
                 15: {3, 8}
                 16: {}
                 17: {7, 9}
                 18: {}
                 19: {}
                 20: {5, 6}
                 21: {5, 7}
                 22: {5, 7}
                 23: {5, 7}
                 24: {5, 7}
                 25: {6, 7}
                 26: {6, 7}
                 27: {5, 6}
                 28: {6, 7}
                 29: {6, 7}
            
        
    Make a multi-level tree node for a cluster group with multiple nodes:
            - Grouptype CLUSTER
              Local nodes: {3, 8}
        
        Starting Algorithm 2 by searching and modifying the matrices based on group information.
            Dumping P:
                   :  0  1  2  3  4  5  6  7  8  9
                  0:  .  2  4  .  .  .  .  .  .  .
                  1:  2  .  4  .  .  .  .  .  .  .
                  2:  4  4  .  .  1  .  .  .  2  .
                  3:  .  .  .  .  .  .  .  .  2  .
                  4:  .  .  1  .  .  .  .  .  .  .
                  5:  .  .  .  .  .  .  2  4  .  .
                  6:  .  .  .  .  .  2  .  4  .  .
                  7:  .  .  2  2  .  4  4  .  .  1
                  8:  .  .  .  2  .  .  .  .  .  .
                  9:  .  .  .  .  .  .  .  1  .  .
            
            Dumping RP:
                  0: {3, 8}
                  1: {}
                  2: {2, 4}
                  3: {}
                  4: {}
                  5: {0, 1}
                  6: {0, 2}
                  7: {0, 2}
                  8: {0, 2}
                  9: {0, 2}
                 10: {1, 2}
                 11: {1, 2}
                 12: {0, 1}
                 13: {1, 2}
                 14: {1, 2}
                 15: {3, 8}
                 16: {}
                 17: {7, 9}
                 18: {}
                 19: {}
                 20: {5, 6}
                 21: {5, 7}
                 22: {5, 7}
                 23: {5, 7}
                 24: {5, 7}
                 25: {6, 7}
                 26: {6, 7}
                 27: {5, 6}
                 28: {6, 7}
                 29: {6, 7}
            
            
            Found P cell (3, 8), with {0, 15} requirements:
                (3, 8): add -2
            Found P cell (8, 3), but no requirements.
            Updated Algorithm 2 data for cluster group members {3, 8}: {3, 8} plant groups, {0, 15} req groups.
            Updated matrices:
                Dumping P:
                       :  0  1  2  3  4  5  6  7  8  9
                      0:  .  2  4  .  .  .  .  .  .  .
                      1:  2  .  4  .  .  .  .  .  .  .
                      2:  4  4  .  .  1  .  .  .  2  .
                      3:  .  .  .  .  .  .  .  .  .  .
                      4:  .  .  1  .  .  .  .  .  .  .
                      5:  .  .  .  .  .  .  2  4  .  .
                      6:  .  .  .  .  .  2  .  4  .  .
                      7:  .  .  2  2  .  4  4  .  .  1
                      8:  .  .  .  2  .  .  .  .  .  .
                      9:  .  .  .  .  .  .  .  1  .  .
                
                Dumping RP:
                      0: {}
                      1: {}
                      2: {2, 4}
                      3: {}
                      4: {}
                      5: {0, 1}
                      6: {0, 2}
                      7: {0, 2}
                      8: {0, 2}
                      9: {0, 2}
                     10: {1, 2}
                     11: {1, 2}
                     12: {0, 1}
                     13: {1, 2}
                     14: {1, 2}
                     15: {}
                     16: {}
                     17: {7, 9}
                     18: {}
                     19: {}
                     20: {5, 6}
                     21: {5, 7}
                     22: {5, 7}
                     23: {5, 7}
                     24: {5, 7}
                     25: {6, 7}
                     26: {6, 7}
                     27: {5, 6}
                     28: {6, 7}
                     29: {6, 7}
                
            
        Make a multi-level tree node for a cluster group with a single node (plant group 3):
            Dumping P:
                   :  0  1  2  3  4  5  6  7  8  9
                  0:  .  2  4  .  .  .  .  .  .  .
                  1:  2  .  4  .  .  .  .  .  .  .
                  2:  4  4  .  .  1  .  .  .  2  .
                  3:  .  .  .  .  .  .  .  .  .  .
                  4:  .  .  1  .  .  .  .  .  .  .
                  5:  .  .  .  .  .  .  2  4  .  .
                  6:  .  .  .  .  .  2  .  4  .  .
                  7:  .  .  2  2  .  4  4  .  .  1
                  8:  .  .  .  2  .  .  .  .  .  .
                  9:  .  .  .  .  .  .  .  1  .  .
            
            Dumping RP:
                  0: {}
                  1: {}
                  2: {2, 4}
                  3: {}
                  4: {}
                  5: {0, 1}
                  6: {0, 2}
                  7: {0, 2}
                  8: {0, 2}
                  9: {0, 2}
                 10: {1, 2}
                 11: {1, 2}
                 12: {0, 1}
                 13: {1, 2}
                 14: {1, 2}
                 15: {}
                 16: {}
                 17: {7, 9}
                 18: {}
                 19: {}
                 20: {5, 6}
                 21: {5, 7}
                 22: {5, 7}
                 23: {5, 7}
                 24: {5, 7}
                 25: {6, 7}
                 26: {6, 7}
                 27: {5, 6}
                 28: {6, 7}
                 29: {6, 7}
            
            Tree node for singleton cluster group 3: {3} plant groups, {} req groups.
            
        ---------- DONE Created tree node for cluster with a single node.
        
        Make a multi-level tree node for a cluster group with a single node (plant group 8):
            Dumping P:
                   :  0  1  2  3  4  5  6  7  8  9
                  0:  .  2  4  .  .  .  .  .  .  .
                  1:  2  .  4  .  .  .  .  .  .  .
                  2:  4  4  .  .  1  .  .  .  2  .
                  3:  .  .  .  .  .  .  .  .  .  .
                  4:  .  .  1  .  .  .  .  .  .  .
                  5:  .  .  .  .  .  .  2  4  .  .
                  6:  .  .  .  .  .  2  .  4  .  .
                  7:  .  .  2  2  .  4  4  .  .  1
                  8:  .  .  .  2  .  .  .  .  .  .
                  9:  .  .  .  .  .  .  .  1  .  .
            
            Dumping RP:
                  0: {}
                  1: {}
                  2: {2, 4}
                  3: {}
                  4: {}
                  5: {0, 1}
                  6: {0, 2}
                  7: {0, 2}
                  8: {0, 2}
                  9: {0, 2}
                 10: {1, 2}
                 11: {1, 2}
                 12: {0, 1}
                 13: {1, 2}
                 14: {1, 2}
                 15: {}
                 16: {}
                 17: {7, 9}
                 18: {}
                 19: {}
                 20: {5, 6}
                 21: {5, 7}
                 22: {5, 7}
                 23: {5, 7}
                 24: {5, 7}
                 25: {6, 7}
                 26: {6, 7}
                 27: {5, 6}
                 28: {6, 7}
                 29: {6, 7}
            
            Tree node for singleton cluster group 8: {8} plant groups, {} req groups.
            
        ---------- DONE Created tree node for cluster with a single node.
        
    ---------- DONE Created tree node for cluster with multiple nodes.
    
    Make a multi-level tree node for a cluster group with multiple nodes:
            - Grouptype CLUSTER
              Local nodes: {0, 1, 2, 4}
        
        Starting Algorithm 2 by searching and modifying the matrices based on group information.
            Dumping P:
                   :  0  1  2  3  4  5  6  7  8  9
                  0:  .  2  4  .  .  .  .  .  .  .
                  1:  2  .  4  .  .  .  .  .  .  .
                  2:  4  4  .  .  1  .  .  .  2  .
                  3:  .  .  .  .  .  .  .  .  2  .
                  4:  .  .  1  .  .  .  .  .  .  .
                  5:  .  .  .  .  .  .  2  4  .  .
                  6:  .  .  .  .  .  2  .  4  .  .
                  7:  .  .  2  2  .  4  4  .  .  1
                  8:  .  .  .  2  .  .  .  .  .  .
                  9:  .  .  .  .  .  .  .  1  .  .
            
            Dumping RP:
                  0: {3, 8}
                  1: {}
                  2: {2, 4}
                  3: {}
                  4: {}
                  5: {0, 1}
                  6: {0, 2}
                  7: {0, 2}
                  8: {0, 2}
                  9: {0, 2}
                 10: {1, 2}
                 11: {1, 2}
                 12: {0, 1}
                 13: {1, 2}
                 14: {1, 2}
                 15: {3, 8}
                 16: {}
                 17: {7, 9}
                 18: {}
                 19: {}
                 20: {5, 6}
                 21: {5, 7}
                 22: {5, 7}
                 23: {5, 7}
                 24: {5, 7}
                 25: {6, 7}
                 26: {6, 7}
                 27: {5, 6}
                 28: {6, 7}
                 29: {6, 7}
            
            
            Found P cell (0, 1), with {5, 12} requirements:
                (0, 1): add -2
            Found P cell (0, 2), with {6, 7, 8, 9} requirements:
                (0, 2): add -4
            Found P cell (1, 0), but no requirements.
            Found P cell (1, 2), with {10, 11, 13, 14} requirements:
                (1, 2): add -4
            Found P cell (2, 0), but no requirements.
            Found P cell (2, 1), but no requirements.
            Found P cell (2, 4), with {2} requirements:
                (2, 4): add -1
            Found P cell (4, 2), but no requirements.
            Updated Algorithm 2 data for cluster group members {0, 1, 2, 4}: {0, 1, 2, 4} plant groups, {2, 5, 6, 7, 8, 9, 10, 11, 12, 13, 14} req groups.
            Updated matrices:
                Dumping P:
                       :  0  1  2  3  4  5  6  7  8  9
                      0:  .  .  .  .  .  .  .  .  .  .
                      1:  2  .  .  .  .  .  .  .  .  .
                      2:  4  4  .  .  .  .  .  .  2  .
                      3:  .  .  .  .  .  .  .  .  2  .
                      4:  .  .  1  .  .  .  .  .  .  .
                      5:  .  .  .  .  .  .  2  4  .  .
                      6:  .  .  .  .  .  2  .  4  .  .
                      7:  .  .  2  2  .  4  4  .  .  1
                      8:  .  .  .  2  .  .  .  .  .  .
                      9:  .  .  .  .  .  .  .  1  .  .
                
                Dumping RP:
                      0: {3, 8}
                      1: {}
                      2: {}
                      3: {}
                      4: {}
                      5: {}
                      6: {}
                      7: {}
                      8: {}
                      9: {}
                     10: {}
                     11: {}
                     12: {}
                     13: {}
                     14: {}
                     15: {3, 8}
                     16: {}
                     17: {7, 9}
                     18: {}
                     19: {}
                     20: {5, 6}
                     21: {5, 7}
                     22: {5, 7}
                     23: {5, 7}
                     24: {5, 7}
                     25: {6, 7}
                     26: {6, 7}
                     27: {5, 6}
                     28: {6, 7}
                     29: {6, 7}
                
            
        Make a multi-level tree node for a cluster group with a single node (plant group 0):
            Dumping P:
                   :  0  1  2  3  4  5  6  7  8  9
                  0:  .  .  .  .  .  .  .  .  .  .
                  1:  2  .  .  .  .  .  .  .  .  .
                  2:  4  4  .  .  .  .  .  .  2  .
                  3:  .  .  .  .  .  .  .  .  2  .
                  4:  .  .  1  .  .  .  .  .  .  .
                  5:  .  .  .  .  .  .  2  4  .  .
                  6:  .  .  .  .  .  2  .  4  .  .
                  7:  .  .  2  2  .  4  4  .  .  1
                  8:  .  .  .  2  .  .  .  .  .  .
                  9:  .  .  .  .  .  .  .  1  .  .
            
            Dumping RP:
                  0: {3, 8}
                  1: {}
                  2: {}
                  3: {}
                  4: {}
                  5: {}
                  6: {}
                  7: {}
                  8: {}
                  9: {}
                 10: {}
                 11: {}
                 12: {}
                 13: {}
                 14: {}
                 15: {3, 8}
                 16: {}
                 17: {7, 9}
                 18: {}
                 19: {}
                 20: {5, 6}
                 21: {5, 7}
                 22: {5, 7}
                 23: {5, 7}
                 24: {5, 7}
                 25: {6, 7}
                 26: {6, 7}
                 27: {5, 6}
                 28: {6, 7}
                 29: {6, 7}
            
            Tree node for singleton cluster group 0: {0} plant groups, {} req groups.
            
        ---------- DONE Created tree node for cluster with a single node.
        
        Make a multi-level tree node for a cluster group with a single node (plant group 1):
            Dumping P:
                   :  0  1  2  3  4  5  6  7  8  9
                  0:  .  .  .  .  .  .  .  .  .  .
                  1:  2  .  .  .  .  .  .  .  .  .
                  2:  4  4  .  .  .  .  .  .  2  .
                  3:  .  .  .  .  .  .  .  .  2  .
                  4:  .  .  1  .  .  .  .  .  .  .
                  5:  .  .  .  .  .  .  2  4  .  .
                  6:  .  .  .  .  .  2  .  4  .  .
                  7:  .  .  2  2  .  4  4  .  .  1
                  8:  .  .  .  2  .  .  .  .  .  .
                  9:  .  .  .  .  .  .  .  1  .  .
            
            Dumping RP:
                  0: {3, 8}
                  1: {}
                  2: {}
                  3: {}
                  4: {}
                  5: {}
                  6: {}
                  7: {}
                  8: {}
                  9: {}
                 10: {}
                 11: {}
                 12: {}
                 13: {}
                 14: {}
                 15: {3, 8}
                 16: {}
                 17: {7, 9}
                 18: {}
                 19: {}
                 20: {5, 6}
                 21: {5, 7}
                 22: {5, 7}
                 23: {5, 7}
                 24: {5, 7}
                 25: {6, 7}
                 26: {6, 7}
                 27: {5, 6}
                 28: {6, 7}
                 29: {6, 7}
            
            Tree node for singleton cluster group 1: {1} plant groups, {} req groups.
            
        ---------- DONE Created tree node for cluster with a single node.
        
        Make a multi-level tree node for a cluster group with a single node (plant group 2):
            Dumping P:
                   :  0  1  2  3  4  5  6  7  8  9
                  0:  .  .  .  .  .  .  .  .  .  .
                  1:  2  .  .  .  .  .  .  .  .  .
                  2:  4  4  .  .  .  .  .  .  2  .
                  3:  .  .  .  .  .  .  .  .  2  .
                  4:  .  .  1  .  .  .  .  .  .  .
                  5:  .  .  .  .  .  .  2  4  .  .
                  6:  .  .  .  .  .  2  .  4  .  .
                  7:  .  .  2  2  .  4  4  .  .  1
                  8:  .  .  .  2  .  .  .  .  .  .
                  9:  .  .  .  .  .  .  .  1  .  .
            
            Dumping RP:
                  0: {3, 8}
                  1: {}
                  2: {}
                  3: {}
                  4: {}
                  5: {}
                  6: {}
                  7: {}
                  8: {}
                  9: {}
                 10: {}
                 11: {}
                 12: {}
                 13: {}
                 14: {}
                 15: {3, 8}
                 16: {}
                 17: {7, 9}
                 18: {}
                 19: {}
                 20: {5, 6}
                 21: {5, 7}
                 22: {5, 7}
                 23: {5, 7}
                 24: {5, 7}
                 25: {6, 7}
                 26: {6, 7}
                 27: {5, 6}
                 28: {6, 7}
                 29: {6, 7}
            
            Tree node for singleton cluster group 2: {2} plant groups, {} req groups.
            
        ---------- DONE Created tree node for cluster with a single node.
        
        Make a multi-level tree node for a cluster group with a single node (plant group 4):
            Dumping P:
                   :  0  1  2  3  4  5  6  7  8  9
                  0:  .  .  .  .  .  .  .  .  .  .
                  1:  2  .  .  .  .  .  .  .  .  .
                  2:  4  4  .  .  .  .  .  .  2  .
                  3:  .  .  .  .  .  .  .  .  2  .
                  4:  .  .  1  .  .  .  .  .  .  .
                  5:  .  .  .  .  .  .  2  4  .  .
                  6:  .  .  .  .  .  2  .  4  .  .
                  7:  .  .  2  2  .  4  4  .  .  1
                  8:  .  .  .  2  .  .  .  .  .  .
                  9:  .  .  .  .  .  .  .  1  .  .
            
            Dumping RP:
                  0: {3, 8}
                  1: {}
                  2: {}
                  3: {}
                  4: {}
                  5: {}
                  6: {}
                  7: {}
                  8: {}
                  9: {}
                 10: {}
                 11: {}
                 12: {}
                 13: {}
                 14: {}
                 15: {3, 8}
                 16: {}
                 17: {7, 9}
                 18: {}
                 19: {}
                 20: {5, 6}
                 21: {5, 7}
                 22: {5, 7}
                 23: {5, 7}
                 24: {5, 7}
                 25: {6, 7}
                 26: {6, 7}
                 27: {5, 6}
                 28: {6, 7}
                 29: {6, 7}
            
            Tree node for singleton cluster group 4: {4} plant groups, {} req groups.
            
        ---------- DONE Created tree node for cluster with a single node.
        
    ---------- DONE Created tree node for cluster with multiple nodes.
    
    Make a multi-level tree node for a cluster group with multiple nodes:
            - Grouptype CLUSTER
              Local nodes: {5, 6, 7, 9}
        
        Starting Algorithm 2 by searching and modifying the matrices based on group information.
            Dumping P:
                   :  0  1  2  3  4  5  6  7  8  9
                  0:  .  2  4  .  .  .  .  .  .  .
                  1:  2  .  4  .  .  .  .  .  .  .
                  2:  4  4  .  .  1  .  .  .  2  .
                  3:  .  .  .  .  .  .  .  .  2  .
                  4:  .  .  1  .  .  .  .  .  .  .
                  5:  .  .  .  .  .  .  2  4  .  .
                  6:  .  .  .  .  .  2  .  4  .  .
                  7:  .  .  2  2  .  4  4  .  .  1
                  8:  .  .  .  2  .  .  .  .  .  .
                  9:  .  .  .  .  .  .  .  1  .  .
            
            Dumping RP:
                  0: {3, 8}
                  1: {}
                  2: {2, 4}
                  3: {}
                  4: {}
                  5: {0, 1}
                  6: {0, 2}
                  7: {0, 2}
                  8: {0, 2}
                  9: {0, 2}
                 10: {1, 2}
                 11: {1, 2}
                 12: {0, 1}
                 13: {1, 2}
                 14: {1, 2}
                 15: {3, 8}
                 16: {}
                 17: {7, 9}
                 18: {}
                 19: {}
                 20: {5, 6}
                 21: {5, 7}
                 22: {5, 7}
                 23: {5, 7}
                 24: {5, 7}
                 25: {6, 7}
                 26: {6, 7}
                 27: {5, 6}
                 28: {6, 7}
                 29: {6, 7}
            
            
            Found P cell (5, 6), with {20, 27} requirements:
                (5, 6): add -2
            Found P cell (5, 7), with {21, 22, 23, 24} requirements:
                (5, 7): add -4
            Found P cell (6, 5), but no requirements.
            Found P cell (6, 7), with {25, 26, 28, 29} requirements:
                (6, 7): add -4
            Found P cell (7, 5), but no requirements.
            Found P cell (7, 6), but no requirements.
            Found P cell (7, 9), with {17} requirements:
                (7, 9): add -1
            Found P cell (9, 7), but no requirements.
            Updated Algorithm 2 data for cluster group members {5, 6, 7, 9}: {5, 6, 7, 9} plant groups, {17, 20, 21, 22, 23, 24, 25, 26, 27, 28, 29} req groups.
            Updated matrices:
                Dumping P:
                       :  0  1  2  3  4  5  6  7  8  9
                      0:  .  2  4  .  .  .  .  .  .  .
                      1:  2  .  4  .  .  .  .  .  .  .
                      2:  4  4  .  .  1  .  .  .  2  .
                      3:  .  .  .  .  .  .  .  .  2  .
                      4:  .  .  1  .  .  .  .  .  .  .
                      5:  .  .  .  .  .  .  .  .  .  .
                      6:  .  .  .  .  .  2  .  .  .  .
                      7:  .  .  2  2  .  4  4  .  .  .
                      8:  .  .  .  2  .  .  .  .  .  .
                      9:  .  .  .  .  .  .  .  1  .  .
                
                Dumping RP:
                      0: {3, 8}
                      1: {}
                      2: {2, 4}
                      3: {}
                      4: {}
                      5: {0, 1}
                      6: {0, 2}
                      7: {0, 2}
                      8: {0, 2}
                      9: {0, 2}
                     10: {1, 2}
                     11: {1, 2}
                     12: {0, 1}
                     13: {1, 2}
                     14: {1, 2}
                     15: {3, 8}
                     16: {}
                     17: {}
                     18: {}
                     19: {}
                     20: {}
                     21: {}
                     22: {}
                     23: {}
                     24: {}
                     25: {}
                     26: {}
                     27: {}
                     28: {}
                     29: {}
                
            
        Make a multi-level tree node for a cluster group with a single node (plant group 5):
            Dumping P:
                   :  0  1  2  3  4  5  6  7  8  9
                  0:  .  2  4  .  .  .  .  .  .  .
                  1:  2  .  4  .  .  .  .  .  .  .
                  2:  4  4  .  .  1  .  .  .  2  .
                  3:  .  .  .  .  .  .  .  .  2  .
                  4:  .  .  1  .  .  .  .  .  .  .
                  5:  .  .  .  .  .  .  .  .  .  .
                  6:  .  .  .  .  .  2  .  .  .  .
                  7:  .  .  2  2  .  4  4  .  .  .
                  8:  .  .  .  2  .  .  .  .  .  .
                  9:  .  .  .  .  .  .  .  1  .  .
            
            Dumping RP:
                  0: {3, 8}
                  1: {}
                  2: {2, 4}
                  3: {}
                  4: {}
                  5: {0, 1}
                  6: {0, 2}
                  7: {0, 2}
                  8: {0, 2}
                  9: {0, 2}
                 10: {1, 2}
                 11: {1, 2}
                 12: {0, 1}
                 13: {1, 2}
                 14: {1, 2}
                 15: {3, 8}
                 16: {}
                 17: {}
                 18: {}
                 19: {}
                 20: {}
                 21: {}
                 22: {}
                 23: {}
                 24: {}
                 25: {}
                 26: {}
                 27: {}
                 28: {}
                 29: {}
            
            Tree node for singleton cluster group 5: {5} plant groups, {} req groups.
            
        ---------- DONE Created tree node for cluster with a single node.
        
        Make a multi-level tree node for a cluster group with a single node (plant group 6):
            Dumping P:
                   :  0  1  2  3  4  5  6  7  8  9
                  0:  .  2  4  .  .  .  .  .  .  .
                  1:  2  .  4  .  .  .  .  .  .  .
                  2:  4  4  .  .  1  .  .  .  2  .
                  3:  .  .  .  .  .  .  .  .  2  .
                  4:  .  .  1  .  .  .  .  .  .  .
                  5:  .  .  .  .  .  .  .  .  .  .
                  6:  .  .  .  .  .  2  .  .  .  .
                  7:  .  .  2  2  .  4  4  .  .  .
                  8:  .  .  .  2  .  .  .  .  .  .
                  9:  .  .  .  .  .  .  .  1  .  .
            
            Dumping RP:
                  0: {3, 8}
                  1: {}
                  2: {2, 4}
                  3: {}
                  4: {}
                  5: {0, 1}
                  6: {0, 2}
                  7: {0, 2}
                  8: {0, 2}
                  9: {0, 2}
                 10: {1, 2}
                 11: {1, 2}
                 12: {0, 1}
                 13: {1, 2}
                 14: {1, 2}
                 15: {3, 8}
                 16: {}
                 17: {}
                 18: {}
                 19: {}
                 20: {}
                 21: {}
                 22: {}
                 23: {}
                 24: {}
                 25: {}
                 26: {}
                 27: {}
                 28: {}
                 29: {}
            
            Tree node for singleton cluster group 6: {6} plant groups, {} req groups.
            
        ---------- DONE Created tree node for cluster with a single node.
        
        Make a multi-level tree node for a cluster group with a single node (plant group 7):
            Dumping P:
                   :  0  1  2  3  4  5  6  7  8  9
                  0:  .  2  4  .  .  .  .  .  .  .
                  1:  2  .  4  .  .  .  .  .  .  .
                  2:  4  4  .  .  1  .  .  .  2  .
                  3:  .  .  .  .  .  .  .  .  2  .
                  4:  .  .  1  .  .  .  .  .  .  .
                  5:  .  .  .  .  .  .  .  .  .  .
                  6:  .  .  .  .  .  2  .  .  .  .
                  7:  .  .  2  2  .  4  4  .  .  .
                  8:  .  .  .  2  .  .  .  .  .  .
                  9:  .  .  .  .  .  .  .  1  .  .
            
            Dumping RP:
                  0: {3, 8}
                  1: {}
                  2: {2, 4}
                  3: {}
                  4: {}
                  5: {0, 1}
                  6: {0, 2}
                  7: {0, 2}
                  8: {0, 2}
                  9: {0, 2}
                 10: {1, 2}
                 11: {1, 2}
                 12: {0, 1}
                 13: {1, 2}
                 14: {1, 2}
                 15: {3, 8}
                 16: {}
                 17: {}
                 18: {}
                 19: {}
                 20: {}
                 21: {}
                 22: {}
                 23: {}
                 24: {}
                 25: {}
                 26: {}
                 27: {}
                 28: {}
                 29: {}
            
            Tree node for singleton cluster group 7: {7} plant groups, {} req groups.
            
        ---------- DONE Created tree node for cluster with a single node.
        
        Make a multi-level tree node for a cluster group with a single node (plant group 9):
            Dumping P:
                   :  0  1  2  3  4  5  6  7  8  9
                  0:  .  2  4  .  .  .  .  .  .  .
                  1:  2  .  4  .  .  .  .  .  .  .
                  2:  4  4  .  .  1  .  .  .  2  .
                  3:  .  .  .  .  .  .  .  .  2  .
                  4:  .  .  1  .  .  .  .  .  .  .
                  5:  .  .  .  .  .  .  .  .  .  .
                  6:  .  .  .  .  .  2  .  .  .  .
                  7:  .  .  2  2  .  4  4  .  .  .
                  8:  .  .  .  2  .  .  .  .  .  .
                  9:  .  .  .  .  .  .  .  1  .  .
            
            Dumping RP:
                  0: {3, 8}
                  1: {}
                  2: {2, 4}
                  3: {}
                  4: {}
                  5: {0, 1}
                  6: {0, 2}
                  7: {0, 2}
                  8: {0, 2}
                  9: {0, 2}
                 10: {1, 2}
                 11: {1, 2}
                 12: {0, 1}
                 13: {1, 2}
                 14: {1, 2}
                 15: {3, 8}
                 16: {}
                 17: {}
                 18: {}
                 19: {}
                 20: {}
                 21: {}
                 22: {}
                 23: {}
                 24: {}
                 25: {}
                 26: {}
                 27: {}
                 28: {}
                 29: {}
            
            Tree node for singleton cluster group 9: {9} plant groups, {} req groups.
            
        ---------- DONE Created tree node for cluster with a single node.
        
    ---------- DONE Created tree node for cluster with multiple nodes.
    
---------- DONE Created tree node for cluster with multiple nodes.

Index: 0
Plant groups: {2, 3, 7, 8}
Req groups:   {1, 3, 4, 16, 18, 19}
Child nodes: 1, 4, 9

Index: 1
Plant groups: {3, 8}
Req groups:   {0, 15}
Child nodes: 2, 3

Index: 2
Plant groups: {3}
Req groups:   <none>
Child nodes: <none>

Index: 3
Plant groups: {8}
Req groups:   <none>
Child nodes: <none>

Index: 4
Plant groups: {0, 1, 2, 4}
Req groups:   {2, 5, 6, 7, 8, 9, 10, 11, 12, 13, 14}
Child nodes: 5, 6, 7, 8

Index: 5
Plant groups: {0}
Req groups:   <none>
Child nodes: <none>

Index: 6
Plant groups: {1}
Req groups:   <none>
Child nodes: <none>

Index: 7
Plant groups: {2}
Req groups:   <none>
Child nodes: <none>

Index: 8
Plant groups: {4}
Req groups:   <none>
Child nodes: <none>

Index: 9
Plant groups: {5, 6, 7, 9}
Req groups:   {17, 20, 21, 22, 23, 24, 25, 26, 27, 28, 29}
Child nodes: 10, 11, 12, 13

Index: 10
Plant groups: {5}
Req groups:   <none>
Child nodes: <none>

Index: 11
Plant groups: {6}
Req groups:   <none>
Child nodes: <none>

Index: 12
Plant groups: {7}
Req groups:   <none>
Child nodes: <none>

Index: 13
Plant groups: {9}
Req groups:   <none>
Child nodes: <none>

