State 1:
    Initial: true
    Marked: false

    Locations:
        location "X" of automaton "A"

    Valuation:
        A.xs = {1: true, 2: false, 3: true}
        A.ys = {0: {true: true, false: false}, 1: {true: true, false: true}}

    Edges:
        edge tau goto state 2

State 2:
    Initial: false
    Marked: false

    Locations:
        location "Y" of automaton "A"

    Valuation:
        A.xs = {1: false, 2: false, 3: true}
        A.ys = {0: {true: true, false: false}, 1: {true: true, false: true}}

    Edges:
        edge tau goto state 3

State 3:
    Initial: false
    Marked: false

    Locations:
        location "Z" of automaton "A"

    Valuation:
        A.xs = {1: false, 2: false, 3: true}
        A.ys = {0: {true: true, false: false}, 1: {true: false, false: true}}
