Loading CIF specification "controllercheck/empty.cif"...

Checking for confluence...

CONCLUSION:
    Finite response checking was disabled, finite response property is unknown.
    [OK] The specification has confluence.
